152
1 0.025 0 0.025
2 0.05 0 0.025
3 0.075 0 0.025
4 0.1 0 0.025
5 0.125 0 0.025
6 0.15 0 0.025
7 0.175 0 0.025
8 0.2 0 0.025
9 0.225 0 0.025
10 0.25 0 0.025
11 0.275 0 0.025
12 0.3 0 0.025
13 0.325 0 0.025
14 0.35 0 0.025
15 0.375 0 0.025
16 0.4 0 0.025
17 0.425 0 0.025
18 0.45 0 0.025
19 0.475 0 0.025
20 0.5 0 0.025
21 0.525 0 0.025
22 0.55 0 0.025
23 0.575 0 0.025
24 0.6 0 0.025
25 0.625 0 0.025
26 0.65 0 0.025
27 0.675 0 0.025
28 0.7 0 0.025
29 0.725 0 0.025
30 0.75 0 0.025
31 0.775 0 0.025
32 0.8 0 0.025
33 0.825 0 0.025
34 0.85 0 0.025
35 0.875 0 0.025
36 0.9 0 0.025
37 0.925 0 0.025
38 0.95 0 0.025
39 0.975 0 0.025
40 0.025 0 0.975
41 0.05 0 0.975
42 0.075 0 0.975
43 0.1 0 0.975
44 0.125 0 0.975
45 0.15 0 0.975
46 0.175 0 0.975
47 0.2 0 0.975
48 0.225 0 0.975
49 0.25 0 0.975
50 0.275 0 0.975
51 0.3 0 0.975
52 0.325 0 0.975
53 0.35 0 0.975
54 0.375 0 0.975
55 0.4 0 0.975
56 0.425 0 0.975
57 0.45 0 0.975
58 0.475 0 0.975
59 0.5 0 0.975
60 0.525 0 0.975
61 0.55 0 0.975
62 0.575 0 0.975
63 0.6 0 0.975
64 0.625 0 0.975
65 0.65 0 0.975
66 0.675 0 0.975
67 0.7 0 0.975
68 0.725 0 0.975
69 0.75 0 0.975
70 0.775 0 0.975
71 0.8 0 0.975
72 0.825 0 0.975
73 0.85 0 0.975
74 0.875 0 0.975
75 0.9 0 0.975
76 0.925 0 0.975
77 0.95 0 0.975
78 0.975 0 0.975
79 0.025 0 0.05
80 0.025 0 0.075
81 0.025 0 0.1
82 0.025 0 0.125
83 0.025 0 0.15
84 0.025 0 0.175
85 0.025 0 0.2
86 0.025 0 0.225
87 0.025 0 0.25
88 0.025 0 0.275
89 0.025 0 0.3
90 0.025 0 0.325
91 0.025 0 0.35
92 0.025 0 0.375
93 0.025 0 0.4
94 0.025 0 0.425
95 0.025 0 0.45
96 0.025 0 0.475
97 0.025 0 0.5
98 0.025 0 0.525
99 0.025 0 0.55
100 0.025 0 0.575
101 0.025 0 0.6
102 0.025 0 0.625
103 0.025 0 0.65
104 0.025 0 0.675
105 0.025 0 0.7
106 0.025 0 0.725
107 0.025 0 0.75
108 0.025 0 0.775
109 0.025 0 0.8
110 0.025 0 0.825
111 0.025 0 0.85
112 0.025 0 0.875
113 0.025 0 0.9
114 0.025 0 0.925
115 0.025 0 0.95
116 0.975 0 0.05
117 0.975 0 0.075
118 0.975 0 0.1
119 0.975 0 0.125
120 0.975 0 0.15
121 0.975 0 0.175
122 0.975 0 0.2
123 0.975 0 0.225
124 0.975 0 0.25
125 0.975 0 0.275
126 0.975 0 0.3
127 0.975 0 0.325
128 0.975 0 0.35
129 0.975 0 0.375
130 0.975 0 0.4
131 0.975 0 0.425
132 0.975 0 0.45
133 0.975 0 0.475
134 0.975 0 0.5
135 0.975 0 0.525
136 0.975 0 0.55
137 0.975 0 0.575
138 0.975 0 0.6
139 0.975 0 0.625
140 0.975 0 0.65
141 0.975 0 0.675
142 0.975 0 0.7
143 0.975 0 0.725
144 0.975 0 0.75
145 0.975 0 0.775
146 0.975 0 0.8
147 0.975 0 0.825
148 0.975 0 0.85
149 0.975 0 0.875
150 0.975 0 0.9
151 0.975 0 0.925
152 0.975 0 0.95
